\begin{tikzpicture}
	\begin{pgfonlayer}{nodelayer}
		\node [style=none] (0) at (0, 0) {};
		\node [style=none] (1) at (0, 0) {};
		\node [style=none] (2) at (0, 6) {};
		\node [style=none] (3) at (8, 0) {};
		\node [style=none] (4) at (-1.25, 6) {$P$};
		\node [style=none] (7) at (8, -0.75) {$V$};
		\node [style=none] (8) at (1, 0) {};
		\node [style=none] (9) at (7, 0) {};
		\node [style=none] (10) at (7, 4) {};
		\node [style=none] (11) at (1, 5) {};
		\node [style=none] (12) at (2.25, 4.75) {};
		\node [style=none] (13) at (3.75, 4.75) {};
		\node [style=none] (14) at (5, 4.25) {};
		\node [style=none] (15) at (6.25, 4.5) {};
		\node [style=none] (16) at (3.25, 2.25) {$W_{ext\to sys}$};
		\node [style=none] (17) at (3.75, 5.75) {Courbe $P = f(v)$};
	\end{pgfonlayer}
	\begin{pgfonlayer}{edgelayer}
		\draw [style=arrow] (1.center) to (3.center);
		\draw [style=arrow] (0.center) to (2.center);
		\draw [style=dash-edgeZ] (11.center) to (8.center);
		\draw [style=dash-edgeZ] (10.center) to (9.center);
		\draw (11.center) to (12.center);
		\draw (12.center) to (13.center);
		\draw (13.center) to (14.center);
		\draw (14.center) to (15.center);
		\draw (15.center) to (10.center);
	\end{pgfonlayer}
\end{tikzpicture}
